EESchema Schematic File Version 4
EELAYER 30 0
EELAYER END
$Descr A4 11693 8268
encoding utf-8
Sheet 2 5
Title "DIY ROTATING XY SURVEY CAMERA"
Date "2021-10-02"
Rev "0.0.1"
Comp "Open Source Hardware"
Comment1 "reuse & fork of project is authorized"
Comment2 "read LICENSE file for informations"
Comment3 "goblinrieur@gmail.com"
Comment4 "0.0.0 -> 0.0.1 little fix & logos on PCB"
$EndDescr
$Comp
L power:VCC #PWR01
U 1 1 61589D32
P 2150 2750
F 0 "#PWR01" H 2150 2600 50  0001 C CNN
F 1 "VCC" H 2165 2923 50  0000 C CNN
F 2 "" H 2150 2750 50  0001 C CNN
F 3 "" H 2150 2750 50  0001 C CNN
	1    2150 2750
	1    0    0    -1  
$EndComp
Text HLabel 1800 3000 0    50   Input ~ 0
VCC
$Comp
L Diode:1N4001 D1
U 1 1 6158B5D3
P 2650 3000
F 0 "D1" H 2650 2783 50  0000 C CNN
F 1 "1N4001" H 2650 2874 50  0000 C CNN
F 2 "Resistor_THT:R_Axial_DIN0204_L3.6mm_D1.6mm_P7.62mm_Horizontal" H 2650 2825 50  0001 C CNN
F 3 "http://www.vishay.com/docs/88503/1n4001.pdf" H 2650 3000 50  0001 C CNN
	1    2650 3000
	-1   0    0    1   
$EndComp
$Comp
L Regulator_Linear:LM7805_TO220 U1
U 1 1 6158C038
P 4300 3000
F 0 "U1" H 4300 3242 50  0000 C CNN
F 1 "LM7805_TO220" H 4300 3151 50  0000 C CNN
F 2 "Package_TO_SOT_THT:TO-220-3_Horizontal_TabDown" H 4300 3225 50  0001 C CIN
F 3 "https://www.onsemi.cn/PowerSolutions/document/MC7800-D.PDF" H 4300 2950 50  0001 C CNN
	1    4300 3000
	1    0    0    -1  
$EndComp
Wire Wire Line
	2150 2750 2150 3000
Wire Wire Line
	2150 3000 1800 3000
Wire Wire Line
	2150 3000 2350 3000
Connection ~ 2150 3000
$Comp
L power:GND #PWR04
U 1 1 61592662
P 4300 5550
F 0 "#PWR04" H 4300 5300 50  0001 C CNN
F 1 "GND" H 4305 5377 50  0000 C CNN
F 2 "" H 4300 5550 50  0001 C CNN
F 3 "" H 4300 5550 50  0001 C CNN
	1    4300 5550
	1    0    0    -1  
$EndComp
$Comp
L power:GND #PWR03
U 1 1 61593A60
P 3600 5550
F 0 "#PWR03" H 3600 5300 50  0001 C CNN
F 1 "GND" H 3605 5377 50  0000 C CNN
F 2 "" H 3600 5550 50  0001 C CNN
F 3 "" H 3600 5550 50  0001 C CNN
	1    3600 5550
	1    0    0    -1  
$EndComp
Text HLabel 1800 3500 0    50   UnSpc ~ 0
ground
$Comp
L power:GND #PWR02
U 1 1 61593EF9
P 2150 5550
F 0 "#PWR02" H 2150 5300 50  0001 C CNN
F 1 "GND" H 2155 5377 50  0000 C CNN
F 2 "" H 2150 5550 50  0001 C CNN
F 3 "" H 2150 5550 50  0001 C CNN
	1    2150 5550
	1    0    0    -1  
$EndComp
Wire Wire Line
	1800 3500 2150 3500
Wire Wire Line
	2150 3500 2150 4500
$Comp
L power:GND #PWR05
U 1 1 61598382
P 5000 5550
F 0 "#PWR05" H 5000 5300 50  0001 C CNN
F 1 "GND" H 5005 5377 50  0000 C CNN
F 2 "" H 5000 5550 50  0001 C CNN
F 3 "" H 5000 5550 50  0001 C CNN
	1    5000 5550
	1    0    0    -1  
$EndComp
$Comp
L Diode:1N4001 D2
U 1 1 615989FB
P 4300 2250
F 0 "D2" H 4300 2467 50  0000 C CNN
F 1 "1N4001" H 4300 2376 50  0000 C CNN
F 2 "Resistor_THT:R_Axial_DIN0204_L3.6mm_D1.6mm_P7.62mm_Horizontal" H 4300 2075 50  0001 C CNN
F 3 "http://www.vishay.com/docs/88503/1n4001.pdf" H 4300 2250 50  0001 C CNN
	1    4300 2250
	1    0    0    -1  
$EndComp
Wire Wire Line
	4150 2250 3700 2250
Wire Wire Line
	3700 2250 3700 3000
Connection ~ 3700 3000
Wire Wire Line
	3700 3000 4000 3000
Wire Wire Line
	4450 2250 4900 2250
Wire Wire Line
	4900 2250 4900 3000
Connection ~ 4900 3000
Wire Wire Line
	4900 3000 4600 3000
$Comp
L Regulator_Linear:LM2937xT U2
U 1 1 6159B7F6
P 7000 4500
F 0 "U2" H 7000 4742 50  0000 C CNN
F 1 "LM2937xT" H 7000 4651 50  0000 C CNN
F 2 "Package_TO_SOT_THT:TO-220-3_Horizontal_TabDown" H 7000 4725 50  0001 C CIN
F 3 "http://www.ti.com/lit/ds/symlink/lm2937.pdf" H 7000 4450 50  0001 C CNN
	1    7000 4500
	1    0    0    -1  
$EndComp
$Comp
L power:GND #PWR07
U 1 1 615A0032
P 7000 5500
F 0 "#PWR07" H 7000 5250 50  0001 C CNN
F 1 "GND" H 7005 5327 50  0000 C CNN
F 2 "" H 7000 5500 50  0001 C CNN
F 3 "" H 7000 5500 50  0001 C CNN
	1    7000 5500
	1    0    0    -1  
$EndComp
Wire Wire Line
	7000 4800 7000 5500
Wire Wire Line
	6700 4500 6300 4500
Wire Wire Line
	6300 4500 6300 3000
$Comp
L Device:C C6
U 1 1 615A4463
P 7800 4800
F 0 "C6" H 7915 4846 50  0000 L CNN
F 1 "100nf" H 7915 4755 50  0000 L CNN
F 2 "Capacitor_SMD:C_0603_1608Metric" H 7838 4650 50  0001 C CNN
F 3 "~" H 7800 4800 50  0001 C CNN
	1    7800 4800
	1    0    0    -1  
$EndComp
$Comp
L power:GND #PWR010
U 1 1 615A48D5
P 7800 5500
F 0 "#PWR010" H 7800 5250 50  0001 C CNN
F 1 "GND" H 7805 5327 50  0000 C CNN
F 2 "" H 7800 5500 50  0001 C CNN
F 3 "" H 7800 5500 50  0001 C CNN
	1    7800 5500
	1    0    0    -1  
$EndComp
Wire Wire Line
	7800 5500 7800 4950
Wire Wire Line
	7800 4650 7800 4500
Wire Wire Line
	7800 4500 7300 4500
$Comp
L Device:L_Iron L2
U 1 1 615A58F4
P 8350 4500
F 0 "L2" V 8575 4500 50  0000 C CNN
F 1 "vk200" V 8484 4500 50  0000 C CNN
F 2 "Resistor_THT:R_Axial_DIN0309_L9.0mm_D3.2mm_P20.32mm_Horizontal" H 8350 4500 50  0001 C CNN
F 3 "~" H 8350 4500 50  0001 C CNN
	1    8350 4500
	0    -1   -1   0   
$EndComp
Wire Wire Line
	8200 4500 7800 4500
Connection ~ 7800 4500
Text HLabel 9000 4500 2    50   Input ~ 0
3.3v_wiz
Wire Wire Line
	9000 4500 8500 4500
$Comp
L Device:L_Iron L1
U 1 1 615A71BD
P 8350 3000
F 0 "L1" V 8575 3000 50  0000 C CNN
F 1 "vk200" V 8484 3000 50  0000 C CNN
F 2 "Resistor_THT:R_Axial_DIN0309_L9.0mm_D3.2mm_P20.32mm_Horizontal" H 8350 3000 50  0001 C CNN
F 3 "~" H 8350 3000 50  0001 C CNN
	1    8350 3000
	0    -1   -1   0   
$EndComp
$Comp
L Device:C C5
U 1 1 615AC7D9
P 7800 3350
F 0 "C5" H 7915 3396 50  0000 L CNN
F 1 "100nf" H 7915 3305 50  0000 L CNN
F 2 "Capacitor_SMD:C_0603_1608Metric" H 7838 3200 50  0001 C CNN
F 3 "~" H 7800 3350 50  0001 C CNN
	1    7800 3350
	1    0    0    -1  
$EndComp
$Comp
L power:GND #PWR09
U 1 1 615AC999
P 7800 3550
F 0 "#PWR09" H 7800 3300 50  0001 C CNN
F 1 "GND" H 7805 3377 50  0000 C CNN
F 2 "" H 7800 3550 50  0001 C CNN
F 3 "" H 7800 3550 50  0001 C CNN
	1    7800 3550
	1    0    0    -1  
$EndComp
Wire Wire Line
	7800 3550 7800 3500
$Comp
L Device:C C3
U 1 1 615B0C5D
P 7000 3350
F 0 "C3" H 7115 3396 50  0000 L CNN
F 1 "100nf" H 7115 3305 50  0000 L CNN
F 2 "Capacitor_SMD:C_0603_1608Metric" H 7038 3200 50  0001 C CNN
F 3 "~" H 7000 3350 50  0001 C CNN
	1    7000 3350
	1    0    0    -1  
$EndComp
$Comp
L power:GND #PWR06
U 1 1 615B0E3B
P 7000 3550
F 0 "#PWR06" H 7000 3300 50  0001 C CNN
F 1 "GND" H 7005 3377 50  0000 C CNN
F 2 "" H 7000 3550 50  0001 C CNN
F 3 "" H 7000 3550 50  0001 C CNN
	1    7000 3550
	1    0    0    -1  
$EndComp
Wire Wire Line
	7000 3550 7000 3500
Wire Wire Line
	8200 3000 7800 3000
Wire Wire Line
	7800 3000 7800 3200
Wire Wire Line
	7800 3000 7000 3000
Connection ~ 7800 3000
Connection ~ 6300 3000
Text HLabel 9000 3000 2    50   Input ~ 0
5v_servos
Wire Wire Line
	8500 3000 9000 3000
Wire Wire Line
	7000 3200 7000 3000
Connection ~ 7000 3000
Wire Wire Line
	7000 3000 6300 3000
$Comp
L Device:C_Polarized_US C4
U 1 1 615BDD71
P 7800 1850
F 0 "C4" H 7915 1896 50  0000 L CNN
F 1 "10µf" H 7915 1805 50  0000 L CNN
F 2 "Capacitor_SMD:CP_Elec_5x5.8" H 7800 1850 50  0001 C CNN
F 3 "~" H 7800 1850 50  0001 C CNN
	1    7800 1850
	1    0    0    -1  
$EndComp
$Comp
L power:GND #PWR08
U 1 1 615BF146
P 7800 2250
F 0 "#PWR08" H 7800 2000 50  0001 C CNN
F 1 "GND" H 7805 2077 50  0000 C CNN
F 2 "" H 7800 2250 50  0001 C CNN
F 3 "" H 7800 2250 50  0001 C CNN
	1    7800 2250
	1    0    0    -1  
$EndComp
Wire Wire Line
	7800 1500 6300 1500
Wire Wire Line
	6300 1500 6300 3000
Wire Wire Line
	7800 1500 7800 1700
Wire Wire Line
	7800 2000 7800 2250
Text HLabel 9000 1500 2    50   Input ~ 0
5v_cam
Wire Wire Line
	9000 1500 7800 1500
Connection ~ 7800 1500
Wire Wire Line
	5000 3000 6300 3000
Wire Wire Line
	5000 3000 4900 3000
Connection ~ 5000 3000
Wire Wire Line
	5000 4250 5000 3000
Wire Wire Line
	5000 4550 5000 5550
$Comp
L Device:C_Polarized_US C2
U 1 1 61594707
P 5000 4400
F 0 "C2" H 5115 4446 50  0000 L CNN
F 1 "220µf" H 5115 4355 50  0000 L CNN
F 2 "Capacitor_SMD:CP_Elec_5x5.8" H 5000 4400 50  0001 C CNN
F 3 "~" H 5000 4400 50  0001 C CNN
	1    5000 4400
	1    0    0    -1  
$EndComp
Wire Wire Line
	3600 5550 3600 4550
Wire Wire Line
	2800 3000 3350 3000
Wire Wire Line
	3600 3000 3700 3000
Connection ~ 3600 3000
Wire Wire Line
	3600 4250 3600 3000
$Comp
L Device:C C1
U 1 1 615930D1
P 3600 4400
F 0 "C1" H 3715 4446 50  0000 L CNN
F 1 "100nf" H 3715 4355 50  0000 L CNN
F 2 "Capacitor_SMD:C_0603_1608Metric" H 3638 4250 50  0001 C CNN
F 3 "~" H 3600 4400 50  0001 C CNN
	1    3600 4400
	1    0    0    -1  
$EndComp
Wire Wire Line
	4300 3300 4300 5550
Text Notes 8500 2250 0    50   ~ 0
Separate 5volts usages to avoid any trouble
Text Notes 8500 5000 0    50   ~ 0
choose a lowdrop voltage regulateur here from the 5v
$Comp
L power:PWR_FLAG #FLG0101
U 1 1 616F08AD
P 2150 4500
F 0 "#FLG0101" H 2150 4575 50  0001 C CNN
F 1 "PWR_FLAG" V 2150 4627 50  0000 L CNN
F 2 "" H 2150 4500 50  0001 C CNN
F 3 "~" H 2150 4500 50  0001 C CNN
	1    2150 4500
	0    -1   -1   0   
$EndComp
Connection ~ 2150 4500
Wire Wire Line
	2150 4500 2150 5550
$Comp
L power:PWR_FLAG #FLG0102
U 1 1 616F0D46
P 2350 3000
F 0 "#FLG0102" H 2350 3075 50  0001 C CNN
F 1 "PWR_FLAG" H 2350 3173 50  0000 C CNN
F 2 "" H 2350 3000 50  0001 C CNN
F 3 "~" H 2350 3000 50  0001 C CNN
	1    2350 3000
	-1   0    0    1   
$EndComp
Connection ~ 2350 3000
Wire Wire Line
	2350 3000 2500 3000
$Comp
L power:PWR_FLAG #FLG0103
U 1 1 616F4D9D
P 3350 3000
F 0 "#FLG0103" H 3350 3075 50  0001 C CNN
F 1 "PWR_FLAG" H 3350 3173 50  0000 C CNN
F 2 "" H 3350 3000 50  0001 C CNN
F 3 "~" H 3350 3000 50  0001 C CNN
	1    3350 3000
	-1   0    0    1   
$EndComp
Connection ~ 3350 3000
Wire Wire Line
	3350 3000 3600 3000
$EndSCHEMATC
