%TF.GenerationSoftware,KiCad,Pcbnew,5.99.0+really5.1.10+dfsg1-1*%
%TF.CreationDate,2021-10-03T01:40:43+02:00*%
%TF.ProjectId,lanweb_XYrotation_camera,6c616e77-6562-45f5-9859-726f74617469,0.0.1*%
%TF.SameCoordinates,Original*%
%TF.FileFunction,Paste,Top*%
%TF.FilePolarity,Positive*%
%FSLAX46Y46*%
G04 Gerber Fmt 4.6, Leading zero omitted, Abs format (unit mm)*
G04 Created by KiCad (PCBNEW 5.99.0+really5.1.10+dfsg1-1) date 2021-10-03 01:40:43*
%MOMM*%
%LPD*%
G01*
G04 APERTURE LIST*
%ADD10R,0.800000X0.900000*%
G04 APERTURE END LIST*
%TO.C,C2*%
G36*
G01*
X94065000Y-79145000D02*
X95165000Y-79145000D01*
G75*
G02*
X95415000Y-79395000I0J-250000D01*
G01*
X95415000Y-81895000D01*
G75*
G02*
X95165000Y-82145000I-250000J0D01*
G01*
X94065000Y-82145000D01*
G75*
G02*
X93815000Y-81895000I0J250000D01*
G01*
X93815000Y-79395000D01*
G75*
G02*
X94065000Y-79145000I250000J0D01*
G01*
G37*
G36*
G01*
X94065000Y-83545000D02*
X95165000Y-83545000D01*
G75*
G02*
X95415000Y-83795000I0J-250000D01*
G01*
X95415000Y-86295000D01*
G75*
G02*
X95165000Y-86545000I-250000J0D01*
G01*
X94065000Y-86545000D01*
G75*
G02*
X93815000Y-86295000I0J250000D01*
G01*
X93815000Y-83795000D01*
G75*
G02*
X94065000Y-83545000I250000J0D01*
G01*
G37*
%TD*%
%TO.C,C3*%
G36*
G01*
X109950000Y-76585000D02*
X109950000Y-77085000D01*
G75*
G02*
X109725000Y-77310000I-225000J0D01*
G01*
X109275000Y-77310000D01*
G75*
G02*
X109050000Y-77085000I0J225000D01*
G01*
X109050000Y-76585000D01*
G75*
G02*
X109275000Y-76360000I225000J0D01*
G01*
X109725000Y-76360000D01*
G75*
G02*
X109950000Y-76585000I0J-225000D01*
G01*
G37*
G36*
G01*
X108400000Y-76585000D02*
X108400000Y-77085000D01*
G75*
G02*
X108175000Y-77310000I-225000J0D01*
G01*
X107725000Y-77310000D01*
G75*
G02*
X107500000Y-77085000I0J225000D01*
G01*
X107500000Y-76585000D01*
G75*
G02*
X107725000Y-76360000I225000J0D01*
G01*
X108175000Y-76360000D01*
G75*
G02*
X108400000Y-76585000I0J-225000D01*
G01*
G37*
%TD*%
%TO.C,C4*%
G36*
G01*
X95165000Y-90740000D02*
X94065000Y-90740000D01*
G75*
G02*
X93815000Y-90490000I0J250000D01*
G01*
X93815000Y-87990000D01*
G75*
G02*
X94065000Y-87740000I250000J0D01*
G01*
X95165000Y-87740000D01*
G75*
G02*
X95415000Y-87990000I0J-250000D01*
G01*
X95415000Y-90490000D01*
G75*
G02*
X95165000Y-90740000I-250000J0D01*
G01*
G37*
G36*
G01*
X95165000Y-95140000D02*
X94065000Y-95140000D01*
G75*
G02*
X93815000Y-94890000I0J250000D01*
G01*
X93815000Y-92390000D01*
G75*
G02*
X94065000Y-92140000I250000J0D01*
G01*
X95165000Y-92140000D01*
G75*
G02*
X95415000Y-92390000I0J-250000D01*
G01*
X95415000Y-94890000D01*
G75*
G02*
X95165000Y-95140000I-250000J0D01*
G01*
G37*
%TD*%
%TO.C,C5*%
G36*
G01*
X103970000Y-77085000D02*
X103970000Y-76585000D01*
G75*
G02*
X104195000Y-76360000I225000J0D01*
G01*
X104645000Y-76360000D01*
G75*
G02*
X104870000Y-76585000I0J-225000D01*
G01*
X104870000Y-77085000D01*
G75*
G02*
X104645000Y-77310000I-225000J0D01*
G01*
X104195000Y-77310000D01*
G75*
G02*
X103970000Y-77085000I0J225000D01*
G01*
G37*
G36*
G01*
X102420000Y-77085000D02*
X102420000Y-76585000D01*
G75*
G02*
X102645000Y-76360000I225000J0D01*
G01*
X103095000Y-76360000D01*
G75*
G02*
X103320000Y-76585000I0J-225000D01*
G01*
X103320000Y-77085000D01*
G75*
G02*
X103095000Y-77310000I-225000J0D01*
G01*
X102645000Y-77310000D01*
G75*
G02*
X102420000Y-77085000I0J225000D01*
G01*
G37*
%TD*%
%TO.C,C301*%
G36*
G01*
X151175000Y-101850000D02*
X151175000Y-101350000D01*
G75*
G02*
X151400000Y-101125000I225000J0D01*
G01*
X151850000Y-101125000D01*
G75*
G02*
X152075000Y-101350000I0J-225000D01*
G01*
X152075000Y-101850000D01*
G75*
G02*
X151850000Y-102075000I-225000J0D01*
G01*
X151400000Y-102075000D01*
G75*
G02*
X151175000Y-101850000I0J225000D01*
G01*
G37*
G36*
G01*
X152725000Y-101850000D02*
X152725000Y-101350000D01*
G75*
G02*
X152950000Y-101125000I225000J0D01*
G01*
X153400000Y-101125000D01*
G75*
G02*
X153625000Y-101350000I0J-225000D01*
G01*
X153625000Y-101850000D01*
G75*
G02*
X153400000Y-102075000I-225000J0D01*
G01*
X152950000Y-102075000D01*
G75*
G02*
X152725000Y-101850000I0J225000D01*
G01*
G37*
%TD*%
%TO.C,C302*%
G36*
G01*
X137965000Y-73410000D02*
X137965000Y-73910000D01*
G75*
G02*
X137740000Y-74135000I-225000J0D01*
G01*
X137290000Y-74135000D01*
G75*
G02*
X137065000Y-73910000I0J225000D01*
G01*
X137065000Y-73410000D01*
G75*
G02*
X137290000Y-73185000I225000J0D01*
G01*
X137740000Y-73185000D01*
G75*
G02*
X137965000Y-73410000I0J-225000D01*
G01*
G37*
G36*
G01*
X139515000Y-73410000D02*
X139515000Y-73910000D01*
G75*
G02*
X139290000Y-74135000I-225000J0D01*
G01*
X138840000Y-74135000D01*
G75*
G02*
X138615000Y-73910000I0J225000D01*
G01*
X138615000Y-73410000D01*
G75*
G02*
X138840000Y-73185000I225000J0D01*
G01*
X139290000Y-73185000D01*
G75*
G02*
X139515000Y-73410000I0J-225000D01*
G01*
G37*
%TD*%
%TO.C,C303*%
G36*
G01*
X139515000Y-75950000D02*
X139515000Y-76450000D01*
G75*
G02*
X139290000Y-76675000I-225000J0D01*
G01*
X138840000Y-76675000D01*
G75*
G02*
X138615000Y-76450000I0J225000D01*
G01*
X138615000Y-75950000D01*
G75*
G02*
X138840000Y-75725000I225000J0D01*
G01*
X139290000Y-75725000D01*
G75*
G02*
X139515000Y-75950000I0J-225000D01*
G01*
G37*
G36*
G01*
X137965000Y-75950000D02*
X137965000Y-76450000D01*
G75*
G02*
X137740000Y-76675000I-225000J0D01*
G01*
X137290000Y-76675000D01*
G75*
G02*
X137065000Y-76450000I0J225000D01*
G01*
X137065000Y-75950000D01*
G75*
G02*
X137290000Y-75725000I225000J0D01*
G01*
X137740000Y-75725000D01*
G75*
G02*
X137965000Y-75950000I0J-225000D01*
G01*
G37*
%TD*%
D10*
%TO.C,Q301*%
X151450000Y-80740000D03*
X153350000Y-80740000D03*
X152400000Y-78740000D03*
%TD*%
%TO.C,R301*%
G36*
G01*
X153825000Y-103689999D02*
X153825000Y-104590001D01*
G75*
G02*
X153575001Y-104840000I-249999J0D01*
G01*
X153049999Y-104840000D01*
G75*
G02*
X152800000Y-104590001I0J249999D01*
G01*
X152800000Y-103689999D01*
G75*
G02*
X153049999Y-103440000I249999J0D01*
G01*
X153575001Y-103440000D01*
G75*
G02*
X153825000Y-103689999I0J-249999D01*
G01*
G37*
G36*
G01*
X152000000Y-103689999D02*
X152000000Y-104590001D01*
G75*
G02*
X151750001Y-104840000I-249999J0D01*
G01*
X151224999Y-104840000D01*
G75*
G02*
X150975000Y-104590001I0J249999D01*
G01*
X150975000Y-103689999D01*
G75*
G02*
X151224999Y-103440000I249999J0D01*
G01*
X151750001Y-103440000D01*
G75*
G02*
X152000000Y-103689999I0J-249999D01*
G01*
G37*
%TD*%
%TO.C,R302*%
G36*
G01*
X160857500Y-91890001D02*
X160857500Y-90989999D01*
G75*
G02*
X161107499Y-90740000I249999J0D01*
G01*
X161632501Y-90740000D01*
G75*
G02*
X161882500Y-90989999I0J-249999D01*
G01*
X161882500Y-91890001D01*
G75*
G02*
X161632501Y-92140000I-249999J0D01*
G01*
X161107499Y-92140000D01*
G75*
G02*
X160857500Y-91890001I0J249999D01*
G01*
G37*
G36*
G01*
X162682500Y-91890001D02*
X162682500Y-90989999D01*
G75*
G02*
X162932499Y-90740000I249999J0D01*
G01*
X163457501Y-90740000D01*
G75*
G02*
X163707500Y-90989999I0J-249999D01*
G01*
X163707500Y-91890001D01*
G75*
G02*
X163457501Y-92140000I-249999J0D01*
G01*
X162932499Y-92140000D01*
G75*
G02*
X162682500Y-91890001I0J249999D01*
G01*
G37*
%TD*%
%TO.C,R303*%
G36*
G01*
X162682500Y-95700001D02*
X162682500Y-94799999D01*
G75*
G02*
X162932499Y-94550000I249999J0D01*
G01*
X163457501Y-94550000D01*
G75*
G02*
X163707500Y-94799999I0J-249999D01*
G01*
X163707500Y-95700001D01*
G75*
G02*
X163457501Y-95950000I-249999J0D01*
G01*
X162932499Y-95950000D01*
G75*
G02*
X162682500Y-95700001I0J249999D01*
G01*
G37*
G36*
G01*
X160857500Y-95700001D02*
X160857500Y-94799999D01*
G75*
G02*
X161107499Y-94550000I249999J0D01*
G01*
X161632501Y-94550000D01*
G75*
G02*
X161882500Y-94799999I0J-249999D01*
G01*
X161882500Y-95700001D01*
G75*
G02*
X161632501Y-95950000I-249999J0D01*
G01*
X161107499Y-95950000D01*
G75*
G02*
X160857500Y-95700001I0J249999D01*
G01*
G37*
%TD*%
%TO.C,R304*%
G36*
G01*
X156887500Y-81095001D02*
X156887500Y-80194999D01*
G75*
G02*
X157137499Y-79945000I249999J0D01*
G01*
X157662501Y-79945000D01*
G75*
G02*
X157912500Y-80194999I0J-249999D01*
G01*
X157912500Y-81095001D01*
G75*
G02*
X157662501Y-81345000I-249999J0D01*
G01*
X157137499Y-81345000D01*
G75*
G02*
X156887500Y-81095001I0J249999D01*
G01*
G37*
G36*
G01*
X155062500Y-81095001D02*
X155062500Y-80194999D01*
G75*
G02*
X155312499Y-79945000I249999J0D01*
G01*
X155837501Y-79945000D01*
G75*
G02*
X156087500Y-80194999I0J-249999D01*
G01*
X156087500Y-81095001D01*
G75*
G02*
X155837501Y-81345000I-249999J0D01*
G01*
X155312499Y-81345000D01*
G75*
G02*
X155062500Y-81095001I0J249999D01*
G01*
G37*
%TD*%
%TO.C,R501*%
G36*
G01*
X161882500Y-87179999D02*
X161882500Y-88080001D01*
G75*
G02*
X161632501Y-88330000I-249999J0D01*
G01*
X161107499Y-88330000D01*
G75*
G02*
X160857500Y-88080001I0J249999D01*
G01*
X160857500Y-87179999D01*
G75*
G02*
X161107499Y-86930000I249999J0D01*
G01*
X161632501Y-86930000D01*
G75*
G02*
X161882500Y-87179999I0J-249999D01*
G01*
G37*
G36*
G01*
X163707500Y-87179999D02*
X163707500Y-88080001D01*
G75*
G02*
X163457501Y-88330000I-249999J0D01*
G01*
X162932499Y-88330000D01*
G75*
G02*
X162682500Y-88080001I0J249999D01*
G01*
X162682500Y-87179999D01*
G75*
G02*
X162932499Y-86930000I249999J0D01*
G01*
X163457501Y-86930000D01*
G75*
G02*
X163707500Y-87179999I0J-249999D01*
G01*
G37*
%TD*%
%TO.C,R502*%
G36*
G01*
X155062500Y-84270001D02*
X155062500Y-83369999D01*
G75*
G02*
X155312499Y-83120000I249999J0D01*
G01*
X155837501Y-83120000D01*
G75*
G02*
X156087500Y-83369999I0J-249999D01*
G01*
X156087500Y-84270001D01*
G75*
G02*
X155837501Y-84520000I-249999J0D01*
G01*
X155312499Y-84520000D01*
G75*
G02*
X155062500Y-84270001I0J249999D01*
G01*
G37*
G36*
G01*
X156887500Y-84270001D02*
X156887500Y-83369999D01*
G75*
G02*
X157137499Y-83120000I249999J0D01*
G01*
X157662501Y-83120000D01*
G75*
G02*
X157912500Y-83369999I0J-249999D01*
G01*
X157912500Y-84270001D01*
G75*
G02*
X157662501Y-84520000I-249999J0D01*
G01*
X157137499Y-84520000D01*
G75*
G02*
X156887500Y-84270001I0J249999D01*
G01*
G37*
%TD*%
M02*
