%TF.GenerationSoftware,KiCad,Pcbnew,5.99.0+really5.1.10+dfsg1-1*%
%TF.CreationDate,2021-10-03T01:40:43+02:00*%
%TF.ProjectId,lanweb_XYrotation_camera,6c616e77-6562-45f5-9859-726f74617469,0.0.1*%
%TF.SameCoordinates,Original*%
%TF.FileFunction,Soldermask,Bot*%
%TF.FilePolarity,Negative*%
%FSLAX46Y46*%
G04 Gerber Fmt 4.6, Leading zero omitted, Abs format (unit mm)*
G04 Created by KiCad (PCBNEW 5.99.0+really5.1.10+dfsg1-1) date 2021-10-03 01:40:43*
%MOMM*%
%LPD*%
G01*
G04 APERTURE LIST*
%ADD10C,1.500000*%
%ADD11C,3.505200*%
%ADD12O,1.700000X1.700000*%
%ADD13R,1.700000X1.700000*%
%ADD14C,1.400000*%
%ADD15O,1.400000X1.400000*%
%ADD16O,2.000000X1.700000*%
%ADD17O,1.950000X1.700000*%
%ADD18O,1.600000X1.600000*%
%ADD19C,1.600000*%
%ADD20O,1.905000X2.000000*%
%ADD21R,1.905000X2.000000*%
%ADD22O,3.500000X3.500000*%
%ADD23R,1.500000X0.550000*%
%ADD24R,0.550000X1.500000*%
G04 APERTURE END LIST*
D10*
%TO.C,Y301*%
X133985000Y-74930000D03*
X133985000Y-79830000D03*
%TD*%
D11*
%TO.C,h3*%
X167640000Y-120650000D03*
%TD*%
%TO.C,h5*%
X149860000Y-111125000D03*
%TD*%
%TO.C,h4*%
X149860000Y-120650000D03*
%TD*%
%TO.C,h1*%
X132080000Y-120650000D03*
%TD*%
%TO.C,h0*%
X132080000Y-95885000D03*
%TD*%
%TO.C,h2*%
X167640000Y-95885000D03*
%TD*%
D12*
%TO.C,wiz_right*%
X139065000Y-121285000D03*
X141605000Y-121285000D03*
X139065000Y-118745000D03*
X141605000Y-118745000D03*
X139065000Y-116205000D03*
X141605000Y-116205000D03*
X139065000Y-113665000D03*
X141605000Y-113665000D03*
X139065000Y-111125000D03*
X141605000Y-111125000D03*
X139065000Y-108585000D03*
X141605000Y-108585000D03*
X139065000Y-106045000D03*
X141605000Y-106045000D03*
X139065000Y-103505000D03*
X141605000Y-103505000D03*
X139065000Y-100965000D03*
X141605000Y-100965000D03*
X139065000Y-98425000D03*
X141605000Y-98425000D03*
X139065000Y-95885000D03*
X141605000Y-95885000D03*
X139065000Y-93345000D03*
X141605000Y-93345000D03*
X139065000Y-90805000D03*
X141605000Y-90805000D03*
X139065000Y-88265000D03*
D13*
X141605000Y-88265000D03*
%TD*%
%TO.C,C1*%
G36*
G01*
X99525000Y-77085000D02*
X99525000Y-76585000D01*
G75*
G02*
X99750000Y-76360000I225000J0D01*
G01*
X100200000Y-76360000D01*
G75*
G02*
X100425000Y-76585000I0J-225000D01*
G01*
X100425000Y-77085000D01*
G75*
G02*
X100200000Y-77310000I-225000J0D01*
G01*
X99750000Y-77310000D01*
G75*
G02*
X99525000Y-77085000I0J225000D01*
G01*
G37*
G36*
G01*
X97975000Y-77085000D02*
X97975000Y-76585000D01*
G75*
G02*
X98200000Y-76360000I225000J0D01*
G01*
X98650000Y-76360000D01*
G75*
G02*
X98875000Y-76585000I0J-225000D01*
G01*
X98875000Y-77085000D01*
G75*
G02*
X98650000Y-77310000I-225000J0D01*
G01*
X98200000Y-77310000D01*
G75*
G02*
X97975000Y-77085000I0J225000D01*
G01*
G37*
%TD*%
%TO.C,C6*%
G36*
G01*
X104095000Y-116590000D02*
X104095000Y-117090000D01*
G75*
G02*
X103870000Y-117315000I-225000J0D01*
G01*
X103420000Y-117315000D01*
G75*
G02*
X103195000Y-117090000I0J225000D01*
G01*
X103195000Y-116590000D01*
G75*
G02*
X103420000Y-116365000I225000J0D01*
G01*
X103870000Y-116365000D01*
G75*
G02*
X104095000Y-116590000I0J-225000D01*
G01*
G37*
G36*
G01*
X102545000Y-116590000D02*
X102545000Y-117090000D01*
G75*
G02*
X102320000Y-117315000I-225000J0D01*
G01*
X101870000Y-117315000D01*
G75*
G02*
X101645000Y-117090000I0J225000D01*
G01*
X101645000Y-116590000D01*
G75*
G02*
X101870000Y-116365000I225000J0D01*
G01*
X102320000Y-116365000D01*
G75*
G02*
X102545000Y-116590000I0J-225000D01*
G01*
G37*
%TD*%
D14*
%TO.C,D1*%
X106680000Y-74930000D03*
D15*
X114300000Y-74930000D03*
%TD*%
%TO.C,D2*%
X94615000Y-74930000D03*
D14*
X102235000Y-74930000D03*
%TD*%
%TO.C,power*%
G36*
G01*
X93230000Y-100115000D02*
X94730000Y-100115000D01*
G75*
G02*
X94980000Y-100365000I0J-250000D01*
G01*
X94980000Y-101565000D01*
G75*
G02*
X94730000Y-101815000I-250000J0D01*
G01*
X93230000Y-101815000D01*
G75*
G02*
X92980000Y-101565000I0J250000D01*
G01*
X92980000Y-100365000D01*
G75*
G02*
X93230000Y-100115000I250000J0D01*
G01*
G37*
D16*
X93980000Y-103465000D03*
%TD*%
%TO.C,servo_0*%
G36*
G01*
X162015000Y-109435000D02*
X160565000Y-109435000D01*
G75*
G02*
X160315000Y-109185000I0J250000D01*
G01*
X160315000Y-107985000D01*
G75*
G02*
X160565000Y-107735000I250000J0D01*
G01*
X162015000Y-107735000D01*
G75*
G02*
X162265000Y-107985000I0J-250000D01*
G01*
X162265000Y-109185000D01*
G75*
G02*
X162015000Y-109435000I-250000J0D01*
G01*
G37*
D17*
X161290000Y-106085000D03*
X161290000Y-103585000D03*
%TD*%
%TO.C,servo_1*%
X161290000Y-115015000D03*
X161290000Y-117515000D03*
G36*
G01*
X162015000Y-120865000D02*
X160565000Y-120865000D01*
G75*
G02*
X160315000Y-120615000I0J250000D01*
G01*
X160315000Y-119415000D01*
G75*
G02*
X160565000Y-119165000I250000J0D01*
G01*
X162015000Y-119165000D01*
G75*
G02*
X162265000Y-119415000I0J-250000D01*
G01*
X162265000Y-120615000D01*
G75*
G02*
X162015000Y-120865000I-250000J0D01*
G01*
G37*
%TD*%
D13*
%TO.C,camera*%
X164465000Y-74930000D03*
D12*
X161925000Y-74930000D03*
X159385000Y-74930000D03*
X156845000Y-74930000D03*
X154305000Y-74930000D03*
X151765000Y-74930000D03*
X149225000Y-74930000D03*
X146685000Y-74930000D03*
%TD*%
D13*
%TO.C,wiz_left*%
X121920000Y-88265000D03*
D12*
X119380000Y-88265000D03*
X121920000Y-90805000D03*
X119380000Y-90805000D03*
X121920000Y-93345000D03*
X119380000Y-93345000D03*
X121920000Y-95885000D03*
X119380000Y-95885000D03*
X121920000Y-98425000D03*
X119380000Y-98425000D03*
X121920000Y-100965000D03*
X119380000Y-100965000D03*
X121920000Y-103505000D03*
X119380000Y-103505000D03*
X121920000Y-106045000D03*
X119380000Y-106045000D03*
X121920000Y-108585000D03*
X119380000Y-108585000D03*
X121920000Y-111125000D03*
X119380000Y-111125000D03*
X121920000Y-113665000D03*
X119380000Y-113665000D03*
X121920000Y-116205000D03*
X119380000Y-116205000D03*
X121920000Y-118745000D03*
X119380000Y-118745000D03*
X121920000Y-121285000D03*
X119380000Y-121285000D03*
%TD*%
D18*
%TO.C,L1*%
X113030000Y-98425000D03*
D19*
X113030000Y-78105000D03*
%TD*%
%TO.C,L2*%
X113030000Y-121920000D03*
D18*
X113030000Y-101600000D03*
%TD*%
%TO.C,OnOff*%
G36*
G01*
X93255000Y-110355000D02*
X94705000Y-110355000D01*
G75*
G02*
X94955000Y-110605000I0J-250000D01*
G01*
X94955000Y-111805000D01*
G75*
G02*
X94705000Y-112055000I-250000J0D01*
G01*
X93255000Y-112055000D01*
G75*
G02*
X93005000Y-111805000I0J250000D01*
G01*
X93005000Y-110605000D01*
G75*
G02*
X93255000Y-110355000I250000J0D01*
G01*
G37*
D17*
X93980000Y-113705000D03*
X93980000Y-116205000D03*
%TD*%
D20*
%TO.C,U1-LM7805*%
X101600000Y-79375000D03*
X104140000Y-79375000D03*
D21*
X106680000Y-79375000D03*
D22*
X104140000Y-96035000D03*
%TD*%
%TO.C,U2-lm2937xt*%
X104140000Y-105260000D03*
D21*
X101600000Y-121920000D03*
D20*
X104140000Y-121920000D03*
X106680000Y-121920000D03*
%TD*%
D23*
%TO.C,U301*%
X158100000Y-88710000D03*
X158100000Y-89510000D03*
X158100000Y-90310000D03*
X158100000Y-91110000D03*
X158100000Y-91910000D03*
X158100000Y-92710000D03*
X158100000Y-93510000D03*
X158100000Y-94310000D03*
X158100000Y-95110000D03*
X158100000Y-95910000D03*
X158100000Y-96710000D03*
D24*
X156400000Y-98410000D03*
X155600000Y-98410000D03*
X154800000Y-98410000D03*
X154000000Y-98410000D03*
X153200000Y-98410000D03*
X152400000Y-98410000D03*
X151600000Y-98410000D03*
X150800000Y-98410000D03*
X150000000Y-98410000D03*
X149200000Y-98410000D03*
X148400000Y-98410000D03*
D23*
X146700000Y-96710000D03*
X146700000Y-95910000D03*
X146700000Y-95110000D03*
X146700000Y-94310000D03*
X146700000Y-93510000D03*
X146700000Y-92710000D03*
X146700000Y-91910000D03*
X146700000Y-91110000D03*
X146700000Y-90310000D03*
X146700000Y-89510000D03*
X146700000Y-88710000D03*
D24*
X148400000Y-87010000D03*
X149200000Y-87010000D03*
X150000000Y-87010000D03*
X150800000Y-87010000D03*
X151600000Y-87010000D03*
X152400000Y-87010000D03*
X153200000Y-87010000D03*
X154000000Y-87010000D03*
X154800000Y-87010000D03*
X155600000Y-87010000D03*
X156400000Y-87010000D03*
%TD*%
M02*
