%TF.GenerationSoftware,KiCad,Pcbnew,5.99.0+really5.1.10+dfsg1-1*%
%TF.CreationDate,2021-10-03T01:40:43+02:00*%
%TF.ProjectId,lanweb_XYrotation_camera,6c616e77-6562-45f5-9859-726f74617469,0.0.1*%
%TF.SameCoordinates,Original*%
%TF.FileFunction,Legend,Bot*%
%TF.FilePolarity,Positive*%
%FSLAX46Y46*%
G04 Gerber Fmt 4.6, Leading zero omitted, Abs format (unit mm)*
G04 Created by KiCad (PCBNEW 5.99.0+really5.1.10+dfsg1-1) date 2021-10-03 01:40:43*
%MOMM*%
%LPD*%
G01*
G04 APERTURE LIST*
%ADD10C,0.150000*%
%ADD11C,0.120000*%
G04 APERTURE END LIST*
D10*
X129800952Y-81065714D02*
X129800952Y-81875238D01*
X129848571Y-81970476D01*
X129896190Y-82018095D01*
X129991428Y-82065714D01*
X130134285Y-82065714D01*
X130229523Y-82018095D01*
X129800952Y-81684761D02*
X129896190Y-81732380D01*
X130086666Y-81732380D01*
X130181904Y-81684761D01*
X130229523Y-81637142D01*
X130277142Y-81541904D01*
X130277142Y-81256190D01*
X130229523Y-81160952D01*
X130181904Y-81113333D01*
X130086666Y-81065714D01*
X129896190Y-81065714D01*
X129800952Y-81113333D01*
X129181904Y-81732380D02*
X129277142Y-81684761D01*
X129324761Y-81637142D01*
X129372380Y-81541904D01*
X129372380Y-81256190D01*
X129324761Y-81160952D01*
X129277142Y-81113333D01*
X129181904Y-81065714D01*
X129039047Y-81065714D01*
X128943809Y-81113333D01*
X128896190Y-81160952D01*
X128848571Y-81256190D01*
X128848571Y-81541904D01*
X128896190Y-81637142D01*
X128943809Y-81684761D01*
X129039047Y-81732380D01*
X129181904Y-81732380D01*
X128420000Y-81732380D02*
X128420000Y-80732380D01*
X128420000Y-81113333D02*
X128324761Y-81065714D01*
X128134285Y-81065714D01*
X128039047Y-81113333D01*
X127991428Y-81160952D01*
X127943809Y-81256190D01*
X127943809Y-81541904D01*
X127991428Y-81637142D01*
X128039047Y-81684761D01*
X128134285Y-81732380D01*
X128324761Y-81732380D01*
X128420000Y-81684761D01*
X127372380Y-81732380D02*
X127467619Y-81684761D01*
X127515238Y-81589523D01*
X127515238Y-80732380D01*
X126991428Y-81732380D02*
X126991428Y-81065714D01*
X126991428Y-80732380D02*
X127039047Y-80780000D01*
X126991428Y-80827619D01*
X126943809Y-80780000D01*
X126991428Y-80732380D01*
X126991428Y-80827619D01*
X126515238Y-81065714D02*
X126515238Y-81732380D01*
X126515238Y-81160952D02*
X126467619Y-81113333D01*
X126372380Y-81065714D01*
X126229523Y-81065714D01*
X126134285Y-81113333D01*
X126086666Y-81208571D01*
X126086666Y-81732380D01*
X125610476Y-81732380D02*
X125610476Y-81065714D01*
X125610476Y-81256190D02*
X125562857Y-81160952D01*
X125515238Y-81113333D01*
X125420000Y-81065714D01*
X125324761Y-81065714D01*
X124991428Y-81732380D02*
X124991428Y-81065714D01*
X124991428Y-80732380D02*
X125039047Y-80780000D01*
X124991428Y-80827619D01*
X124943809Y-80780000D01*
X124991428Y-80732380D01*
X124991428Y-80827619D01*
X124134285Y-81684761D02*
X124229523Y-81732380D01*
X124420000Y-81732380D01*
X124515238Y-81684761D01*
X124562857Y-81589523D01*
X124562857Y-81208571D01*
X124515238Y-81113333D01*
X124420000Y-81065714D01*
X124229523Y-81065714D01*
X124134285Y-81113333D01*
X124086666Y-81208571D01*
X124086666Y-81303809D01*
X124562857Y-81399047D01*
X123229523Y-81065714D02*
X123229523Y-81732380D01*
X123658095Y-81065714D02*
X123658095Y-81589523D01*
X123610476Y-81684761D01*
X123515238Y-81732380D01*
X123372380Y-81732380D01*
X123277142Y-81684761D01*
X123229523Y-81637142D01*
X122753333Y-81732380D02*
X122753333Y-81065714D01*
X122753333Y-81256190D02*
X122705714Y-81160952D01*
X122658095Y-81113333D01*
X122562857Y-81065714D01*
X122467619Y-81065714D01*
X121515238Y-81256190D02*
X121562857Y-81208571D01*
X121658095Y-81160952D01*
X121753333Y-81160952D01*
X121848571Y-81208571D01*
X121896190Y-81256190D01*
X121943809Y-81351428D01*
X121943809Y-81446666D01*
X121896190Y-81541904D01*
X121848571Y-81589523D01*
X121753333Y-81637142D01*
X121658095Y-81637142D01*
X121562857Y-81589523D01*
X121515238Y-81541904D01*
X121515238Y-81160952D02*
X121515238Y-81541904D01*
X121467619Y-81589523D01*
X121420000Y-81589523D01*
X121324761Y-81541904D01*
X121277142Y-81446666D01*
X121277142Y-81208571D01*
X121372380Y-81065714D01*
X121515238Y-80970476D01*
X121705714Y-80922857D01*
X121896190Y-80970476D01*
X122039047Y-81065714D01*
X122134285Y-81208571D01*
X122181904Y-81399047D01*
X122134285Y-81589523D01*
X122039047Y-81732380D01*
X121896190Y-81827619D01*
X121705714Y-81875238D01*
X121515238Y-81827619D01*
X121372380Y-81732380D01*
X120420000Y-81065714D02*
X120420000Y-81875238D01*
X120467619Y-81970476D01*
X120515238Y-82018095D01*
X120610476Y-82065714D01*
X120753333Y-82065714D01*
X120848571Y-82018095D01*
X120420000Y-81684761D02*
X120515238Y-81732380D01*
X120705714Y-81732380D01*
X120800952Y-81684761D01*
X120848571Y-81637142D01*
X120896190Y-81541904D01*
X120896190Y-81256190D01*
X120848571Y-81160952D01*
X120800952Y-81113333D01*
X120705714Y-81065714D01*
X120515238Y-81065714D01*
X120420000Y-81113333D01*
X119943809Y-81732380D02*
X119943809Y-81065714D01*
X119943809Y-81160952D02*
X119896190Y-81113333D01*
X119800952Y-81065714D01*
X119658095Y-81065714D01*
X119562857Y-81113333D01*
X119515238Y-81208571D01*
X119515238Y-81732380D01*
X119515238Y-81208571D02*
X119467619Y-81113333D01*
X119372380Y-81065714D01*
X119229523Y-81065714D01*
X119134285Y-81113333D01*
X119086666Y-81208571D01*
X119086666Y-81732380D01*
X118181904Y-81732380D02*
X118181904Y-81208571D01*
X118229523Y-81113333D01*
X118324761Y-81065714D01*
X118515238Y-81065714D01*
X118610476Y-81113333D01*
X118181904Y-81684761D02*
X118277142Y-81732380D01*
X118515238Y-81732380D01*
X118610476Y-81684761D01*
X118658095Y-81589523D01*
X118658095Y-81494285D01*
X118610476Y-81399047D01*
X118515238Y-81351428D01*
X118277142Y-81351428D01*
X118181904Y-81303809D01*
X117705714Y-81732380D02*
X117705714Y-81065714D01*
X117705714Y-80732380D02*
X117753333Y-80780000D01*
X117705714Y-80827619D01*
X117658095Y-80780000D01*
X117705714Y-80732380D01*
X117705714Y-80827619D01*
X117086666Y-81732380D02*
X117181904Y-81684761D01*
X117229523Y-81589523D01*
X117229523Y-80732380D01*
X116705714Y-81637142D02*
X116658095Y-81684761D01*
X116705714Y-81732380D01*
X116753333Y-81684761D01*
X116705714Y-81637142D01*
X116705714Y-81732380D01*
X115800952Y-81684761D02*
X115896190Y-81732380D01*
X116086666Y-81732380D01*
X116181904Y-81684761D01*
X116229523Y-81637142D01*
X116277142Y-81541904D01*
X116277142Y-81256190D01*
X116229523Y-81160952D01*
X116181904Y-81113333D01*
X116086666Y-81065714D01*
X115896190Y-81065714D01*
X115800952Y-81113333D01*
X115229523Y-81732380D02*
X115324761Y-81684761D01*
X115372380Y-81637142D01*
X115420000Y-81541904D01*
X115420000Y-81256190D01*
X115372380Y-81160952D01*
X115324761Y-81113333D01*
X115229523Y-81065714D01*
X115086666Y-81065714D01*
X114991428Y-81113333D01*
X114943809Y-81160952D01*
X114896190Y-81256190D01*
X114896190Y-81541904D01*
X114943809Y-81637142D01*
X114991428Y-81684761D01*
X115086666Y-81732380D01*
X115229523Y-81732380D01*
X114467619Y-81732380D02*
X114467619Y-81065714D01*
X114467619Y-81160952D02*
X114420000Y-81113333D01*
X114324761Y-81065714D01*
X114181904Y-81065714D01*
X114086666Y-81113333D01*
X114039047Y-81208571D01*
X114039047Y-81732380D01*
X114039047Y-81208571D02*
X113991428Y-81113333D01*
X113896190Y-81065714D01*
X113753333Y-81065714D01*
X113658095Y-81113333D01*
X113610476Y-81208571D01*
X113610476Y-81732380D01*
D11*
%TO.C,C1*%
X99059420Y-77345000D02*
X99340580Y-77345000D01*
X99059420Y-76325000D02*
X99340580Y-76325000D01*
%TO.C,C6*%
X103010580Y-117350000D02*
X102729420Y-117350000D01*
X103010580Y-116330000D02*
X102729420Y-116330000D01*
D10*
%TO.C,U301*%
X157575000Y-88110000D02*
X158850000Y-88110000D01*
X147225000Y-87535000D02*
X147900000Y-87535000D01*
X147225000Y-97885000D02*
X147900000Y-97885000D01*
X157575000Y-97885000D02*
X156900000Y-97885000D01*
X157575000Y-87535000D02*
X156900000Y-87535000D01*
X157575000Y-97885000D02*
X157575000Y-97210000D01*
X147225000Y-97885000D02*
X147225000Y-97210000D01*
X147225000Y-87535000D02*
X147225000Y-88210000D01*
X157575000Y-87535000D02*
X157575000Y-88110000D01*
%TO.C,C1*%
X98591666Y-79732142D02*
X98639285Y-79779761D01*
X98782142Y-79827380D01*
X98877380Y-79827380D01*
X99020238Y-79779761D01*
X99115476Y-79684523D01*
X99163095Y-79589285D01*
X99210714Y-79398809D01*
X99210714Y-79255952D01*
X99163095Y-79065476D01*
X99115476Y-78970238D01*
X99020238Y-78875000D01*
X98877380Y-78827380D01*
X98782142Y-78827380D01*
X98639285Y-78875000D01*
X98591666Y-78922619D01*
X97639285Y-79827380D02*
X98210714Y-79827380D01*
X97925000Y-79827380D02*
X97925000Y-78827380D01*
X98020238Y-78970238D01*
X98115476Y-79065476D01*
X98210714Y-79113095D01*
%TO.C,C6*%
X106846666Y-117197142D02*
X106894285Y-117244761D01*
X107037142Y-117292380D01*
X107132380Y-117292380D01*
X107275238Y-117244761D01*
X107370476Y-117149523D01*
X107418095Y-117054285D01*
X107465714Y-116863809D01*
X107465714Y-116720952D01*
X107418095Y-116530476D01*
X107370476Y-116435238D01*
X107275238Y-116340000D01*
X107132380Y-116292380D01*
X107037142Y-116292380D01*
X106894285Y-116340000D01*
X106846666Y-116387619D01*
X105989523Y-116292380D02*
X106180000Y-116292380D01*
X106275238Y-116340000D01*
X106322857Y-116387619D01*
X106418095Y-116530476D01*
X106465714Y-116720952D01*
X106465714Y-117101904D01*
X106418095Y-117197142D01*
X106370476Y-117244761D01*
X106275238Y-117292380D01*
X106084761Y-117292380D01*
X105989523Y-117244761D01*
X105941904Y-117197142D01*
X105894285Y-117101904D01*
X105894285Y-116863809D01*
X105941904Y-116768571D01*
X105989523Y-116720952D01*
X106084761Y-116673333D01*
X106275238Y-116673333D01*
X106370476Y-116720952D01*
X106418095Y-116768571D01*
X106465714Y-116863809D01*
%TO.C,U301*%
X154114285Y-83272380D02*
X154114285Y-84081904D01*
X154066666Y-84177142D01*
X154019047Y-84224761D01*
X153923809Y-84272380D01*
X153733333Y-84272380D01*
X153638095Y-84224761D01*
X153590476Y-84177142D01*
X153542857Y-84081904D01*
X153542857Y-83272380D01*
X153161904Y-83272380D02*
X152542857Y-83272380D01*
X152876190Y-83653333D01*
X152733333Y-83653333D01*
X152638095Y-83700952D01*
X152590476Y-83748571D01*
X152542857Y-83843809D01*
X152542857Y-84081904D01*
X152590476Y-84177142D01*
X152638095Y-84224761D01*
X152733333Y-84272380D01*
X153019047Y-84272380D01*
X153114285Y-84224761D01*
X153161904Y-84177142D01*
X151923809Y-83272380D02*
X151828571Y-83272380D01*
X151733333Y-83320000D01*
X151685714Y-83367619D01*
X151638095Y-83462857D01*
X151590476Y-83653333D01*
X151590476Y-83891428D01*
X151638095Y-84081904D01*
X151685714Y-84177142D01*
X151733333Y-84224761D01*
X151828571Y-84272380D01*
X151923809Y-84272380D01*
X152019047Y-84224761D01*
X152066666Y-84177142D01*
X152114285Y-84081904D01*
X152161904Y-83891428D01*
X152161904Y-83653333D01*
X152114285Y-83462857D01*
X152066666Y-83367619D01*
X152019047Y-83320000D01*
X151923809Y-83272380D01*
X150638095Y-84272380D02*
X151209523Y-84272380D01*
X150923809Y-84272380D02*
X150923809Y-83272380D01*
X151019047Y-83415238D01*
X151114285Y-83510476D01*
X151209523Y-83558095D01*
%TD*%
M02*
